Node: 1
Edges: 9// 9// 14// 20// 

Node: 2
Edges: 9// 10// 15// 

Node: 3
Edges: 7// 8// 9// 

Node: 4
Edges: 4// 7// 8// 10// 14// 100// 

Node: 5
Edges: 6// 15// 20// 100// 

Node: 6
Edges: 4// 5// 8// 

Node: 7
Edges: 5// 6// 8// 

